…
我们还需要一个`stop_words`向量，由常用的英语单词和我们数据集中常见的单词组成，它会告诉算法忽略它们。在模型拟合之后，我们可以使用`tidy()`函数从模型中提取相关的`beta`，即每个主题中每个单词的概率。
```{r}
betas <- tidy(lda_model)
betas
# A tibble: 256,992 x 3
 topic term beta
 <int> <chr> <dbl>
 1 0 know 303.
 2 0 work 250.
 3 0 want 367.
 4 0 books 211.
 5 0 family 213.
 6 0 think 291.
 7 0 going 160.
 8 0 anything 292.
 9 0 enjoy 145.
10 0 much 272.
# … with 256,982 more rows
```
…
Today, a graph is defined as an ordered pair $G = (V, E)$ , with V a set of vertices (nodes
or points) and $E \subseteq \{ \{x, y\}|(x,y) \in V^2 \wedge   x\ne y\}$ a set of edges (links or lines), which
are either an unordered pair for undirected graphs or an ordered pair for directed
graphs. The former describes links where the direction does not matter, and the latter
describes links where it does.
As a simple example, we can use the highschool dataset from the ggraph package,
which tracks friendship among high school boys. In this dataset, the vertices are the
students and the edges describe pairs of students who happen to be friends in a par‐
ticular year:
```{r}
install.packages("ggraph")
install.packages("igraph")
ggraph::highschool
# A tibble: 506 x 3
 from to year
 <dbl> <dbl> <dbl>
 1 1 14 1957
 2 1 15 1957
 3 1 21 1957
 4 1 54 1957
 5 1 55 1957
 6 2 21 1957
 7 2 22 1957
 8 3 9 1957
 9 3 15 1957
10 4 5 1957
# … with 496 more rows
```
…
Notice that the file sizes vary: this is so that it simulates what a true stream would do:
```{r}
file.info(file.path("source", list.files("source")))[1]
## size
## source/stream_1.csv 44
## source/stream_2.csv 121
## source/stream_3.csv 540
## source/stream_4.csv 2370
## source/stream_5.csv 7236
```
The stream_generate_test() by default creates a single numeric variable Data‐
Frame.
```{r}
readr::read_csv("source/stream_5.csv")
## # A tibble: 1,489 x 1
## x
## <dbl>
## 1 630
## 2 631
## 3 632
## 4 633
## 5 634
## 6 635
## 7 636
## 8 637
## 9 638
## 10 639
## # ... with 1,479 more rows
```
…
